babynames
…
Do Male or Females represent the majority of unique names?

How many unique names do each letter of the alphabet account for?

How many unique names are there?

We will need to use dplyr and distinct in order to find the number of unique names, or else we will run into an issue in which multiple instances of a name will be counted–thereby obscuring the actual number.

babynames %>% 
  # Get data ready to be sorted by name
  group_by(name) %>% 
  # Count how many times each name appears
  count()

# A tibble: 97,310 x 2
# Groups:   name [97,310]
   name          n
   <chr>     <int>
 1 Aaban        10
 2 Aabha         5
 3 Aabid         2
 4 Aabir         1
 5 Aabriella     5
 6 Aada          1
 7 Aadam        26
 8 Aadan        11
 9 Aadarsh      17
10 Aaden        18
# … with 97,300 more rows

You can see from the n column that this is reporting mulitple instances of each name. This does inadvertedly answer one of our other questions:

Which name appears most often throughout the years from 1880-2017?

babynames %>% 
  group_by(name) %>% 
  # Sort the data from largest to smallest
  count(sort=T)

# A tibble: 97,310 x 2
# Groups:   name [97,310]
   name        n
   <chr>   <int>
 1 Francis   276
 2 James     276
 3 Jean      276
 4 Jesse     276
 5 Jessie    276
 6 John      276
 7 Johnnie   276
 8 Joseph    276
 9 Lee       276
10 Leslie    276
# … with 97,300 more rows
…
You will notice that we lost everything in the y column! We need to use the .keep_all() argument.

# Take a sample of letters from the alphabet with replacement
x <- sample(letters,50,replace = T)
y <- round(runif(50,5,100))
# Prevent the string constants from being treated as factors
xy <- data.frame(x,y,stringsAsFactors = F)
# Find the distinct values
xy %>% 
  distinct(x,.keep_all = T) %>% 
  group_by(x) %>% 
  arrange(x)

# A tibble: 21 x 2
# Groups:   x [21]
   x         y
   <chr> <dbl>
 1 a        81
 2 c        21
 3 e        60
 4 f        57
 5 g        41
 6 h        72
 7 i        58
 8 j        56
 9 k        94
10 l        82
# … with 11 more rows

So now we will do the same with the babynames dataset to find the number of distinct names.

babynames %>% 
  # Remove all duplicated names, but keep the other variables
  distinct(name,.keep_all = T)

# A tibble: 97,310 x 5
    year sex   name          n   prop
   <dbl> <chr> <chr>     <int>  <dbl>
 1  1880 F     Mary       7065 0.0724
 2  1880 F     Anna       2604 0.0267
 3  1880 F     Emma       2003 0.0205
 4  1880 F     Elizabeth  1939 0.0199
 5  1880 F     Minnie     1746 0.0179
 6  1880 F     Margaret   1578 0.0162
 7  1880 F     Ida        1472 0.0151
 8  1880 F     Alice      1414 0.0145
 9  1880 F     Bertha     1320 0.0135
10  1880 F     Sarah      1288 0.0132
# … with 97,300 more rows
…
We will do this using muatate and regular expressions, which are covered here. We will then need to repeat what we did by only returning the distinct names in the set.

When the data is in this format, we will then group_by the new variable, sw and count.

babynames %>% 
  # Create new column that looks for the start of each name
  mutate(sw=unlist(str_match_all(name,"^."))) %>% 
  # Remove duplicate names
  distinct(name,.keep_all = T) %>% 
  # Sort by the starting letter
  group_by(sw) %>% 
  # Sort by largest to smallest
  count(sort=T)

# A tibble: 26 x 2
# Groups:   sw [26]
   sw        n
   <chr> <int>
 1 A     10292
 2 S      7931
 3 J      7817
 4 M      7529
 5 K      7283
 6 D      6574
 7 T      6278
 8 L      5744
 9 C      5731
10 R      4429
# … with 16 more rows
…
We can see that females have almost double the amount of unique names!

While going through the dataset I noticed that even after removing duplicate names I was still seeing name doubles. I realized that this was because some exist have both male and female owners.

The arranging of this particular question was a little difficult for me so I went over to Reddit where a helpful user, PM_ME_CAREER_CHOICES was able to guide me in the right direction.

babynames %>% 
  distinct(sex,name,.keep_all = T) %>% 
  group_by(name) %>% 
  count() %>% 
  # If a name is truly unique it should be n = 1
  filter(n ==2) 

# A tibble: 10,663 x 2
# Groups:   name [10,663]
   name        n
   <chr>   <int>
 1 Aaden       2
 2 Aadi        2
 3 Aadyn       2
 4 Aalijah     2
 5 Aaliyah     2
 6 Aaliyan     2
 7 Aamari      2
 8 Aamir       2
 9 Aaren       2
10 Aareon      2
# … with 10,653 more rows
…
What name(s) has the most owners (dead and alive)

Next we can take a look at what names have the most number of owners.

We will do this by summing up every occurence of a name and then sorting them to get each names total count.

babynames %>% 
    group_by(sex,name) %>% 
    # Create column that adds up every n instance of a name
    summarise(Total=sum(n)) %>% 
    # Arrange in descending order the total number 
    arrange(desc(Total))

# A tibble: 107,973 x 3
# Groups:   sex [2]
   sex   name      Total
   <chr> <chr>     <int>
 1 M     James   5150472
 2 M     John    5115466
 3 M     Robert  4814815
 4 M     Michael 4350824
 5 F     Mary    4123200
 6 M     William 4102604
 7 M     David   3611329
 8 M     Joseph  2603445
 9 M     Richard 2563082
10 M     Charles 2386048
# … with 107,963 more rows
…
