stringr
…
word_tbl %>% 
  # Create a column of the letter the word starts with
  mutate(sw=unlist(str_match_all(words,"^."))) %>% 
  # Group by that new column. Any change we make will be in accordance with this column. 
  group_by(sw) %>% 
# We will use the tally function to count how many observations fall into each category. 
  tally()

# A tibble: 25 x 2
   sw        n
   <chr> <int>
 1 a        65
 2 b        58
 3 c        83
 4 C         2
 5 d        43
 6 e        45
 7 f        54
 8 g        23
 9 h        38
10 i        25
# … with 15 more rows
…
