David Brocker - Visualizations: {Stringr}
…
word_tbl %>% 
  # Create a column of the letter the word starts with
  mutate(sw= str_match_all(words,"^.") |> unlist()) %>% 
  # Group by that new column. Any change we make will be in accordance with this column. 
  group_by(sw) %>% 
# We will use the tally function to count how many observations fall into each category. 
  tally()

# A tibble: 25 × 2
   sw        n
   <chr> <int>
 1 C         2
 2 a        65
 3 b        58
 4 c        83
 5 d        43
 6 e        45
 7 f        54
 8 g        23
 9 h        38
10 i        25
# ℹ 15 more rows
…
